データ収集
…
## 
## [[3]]
## # A tibble: 1 × 7
##   X1    X2    X3    X4    X5    X6    X7   
##   <lgl> <lgl> <lgl> <lgl> <lgl> <lgl> <lgl>
## 1 NA    NA    NA    NA    NA    NA    NA   
## 
## [[4]]
## # A tibble: 1 × 3
##   X1    X2    X3   
##   <lgl> <lgl> <lgl>
## 1 NA    NA    NA   
## 
## [[5]]
## # A tibble: 25 × 17
##    時    気圧(…¹ 気圧(…² 降水…³  気温(…⁴ 露点…⁵  蒸気…⁶  湿度(…⁷ 風向…⁸ 風向・…⁹
##    <chr> <chr>   <chr>   <chr>   <chr>   <chr>   <chr>   <chr>   <chr>  <chr>   
##  1 時    現地    海面    降水量… 気温(℃) 露点温… 蒸気圧… 湿度(…  風速   風向    
##  2 1     1007.0  1009.7  --      28.7    23.2    28.4    72      3.8    南      
##  3 2     1006.5  1009.2  --      28.7    23.2    28.4    72      4.8    南      
##  4 3     1006.9  1009.6  --      28.5    23.2    28.4    73      5.2    南      
##  5 4     1006.7  1009.4  --      28.2    23.1    28.3    74      4.0    南      
##  6 5     1007.0  1009.7  --      27.8    23.4    28.8    77      4.1    南      
##  7 6     1007.3  1010.0  --      28.0    23.6    29.1    77      3.9    南      
##  8 7     1007.4  1010.1  --      29.6    23.6    29.0    70      3.4    南      
##  9 8     1007.6  1010.3  --      31.2    23.8    29.6    65      4.9    南南西  
## 10 9     1007.5  1010.2  --      32.5    23.5    28.9    59      5.1    南南西  
## # … with 15 more rows, 7 more variables: `日照時間(h)` <chr>,
## #   `全天日射量(MJ/㎡)` <chr>, `雪(cm)` <chr>, `雪(cm)` <chr>, 天気 <chr>,
## #   雲量 <chr>, `視程(km)` <chr>, and abbreviated variable names ¹​`気圧(hPa)`,
## #   ²​`気圧(hPa)`, ³​`降水量(mm)`, ⁴​`気温(℃)`, ⁵​`露点温度(℃)`, ⁶​`蒸気圧(hPa)`,
## #   ⁷​`湿度(％)`, ⁸​`風向・風速(m/s)`, ⁹​`風向・風速(m/s)`
## # ℹ Use `print(n = ...)` to see more rows, and `colnames()` to see all variable names
## 
## [[6]]
…
